<svg width="21" height="31" viewBox="0 0 21 31" fill="none" xmlns="http://www.w3.org/2000/svg">
<path fill-rule="evenodd" clip-rule="evenodd" d="M18.08 9.03998C18.08 14.0349 9.03998 27.7226 9.03998 27.7226C9.03998 27.7226 0 14.0349 0 9.03998C0 4.0475 4.0463 0 9.03998 0C14.0325 0 18.08 4.0475 18.08 9.03998V9.03998Z" transform="translate(1.75781 1.82339)" stroke="#FFE23F" stroke-width="2" stroke-linecap="round" stroke-linejoin="round"/>
<path fill-rule="evenodd" clip-rule="evenodd" d="M7.23199 3.61599C7.23199 5.61323 5.61202 7.23199 3.61599 7.23199C1.61876 7.23199 0 5.61323 0 3.61599C0 1.61997 1.61876 0 3.61599 0C5.61202 0 7.23199 1.61997 7.23199 3.61599V3.61599Z" transform="translate(7.18359 7.24643)" stroke="#FFE23F" stroke-width="2" stroke-linecap="round" stroke-linejoin="round"/>
</svg>
