<svg width="22" height="19" viewBox="0 0 22 19" fill="none" xmlns="http://www.w3.org/2000/svg">
<path d="M14.5932 16.8121H1.09282V1.09282H14.5931C14.9294 1.09282 15.202 0.820139 15.202 0.483871C15.202 0.147602 14.9292 -0.125 14.5931 -0.125H0.483954C0.147678 -0.125 -0.125 0.14765 -0.125 0.483871V17.421C-0.125 17.7572 0.147657 18.0299 0.483954 18.0299H14.5932C14.9294 18.0299 15.202 17.7571 15.202 17.421C15.202 17.0848 14.9294 16.8121 14.5932 16.8121Z" transform="translate(1 0.809326)" fill="black" stroke="black" stroke-width="0.25"/>
<path d="M7.28051 6.88257L7.28053 6.88259C7.39939 7.00135 7.55538 7.06086 7.71105 7.06086C7.86665 7.06086 8.02264 7.00134 8.14149 6.88259L8.14153 6.88255L11.1254 3.89871C11.1254 3.8987 11.1254 3.89869 11.1254 3.89868C11.3633 3.66092 11.3633 3.27549 11.1254 3.03771L8.14154 0.0534117L8.14153 0.053405C7.90368 -0.18444 7.5184 -0.184477 7.28055 0.0533467C7.04258 0.291004 7.04264 0.676622 7.28048 0.91443C7.28049 0.914437 7.2805 0.914443 7.2805 0.91445L9.22494 2.85934H0.483871C0.147616 2.85934 -0.125 3.13201 -0.125 3.46821C-0.125 3.80448 0.147651 4.07716 0.483871 4.07716H9.22488L7.2805 6.02147L7.36888 6.10986L7.28049 6.02148C7.04263 6.25934 7.0426 6.64477 7.28051 6.88257Z" transform="translate(9.82031 5.99582)" fill="black" stroke="black" stroke-width="0.25"/>
</svg>
