<?xml version="1.0" encoding="utf-8"?>
<!-- Generator: Adobe Illustrator 22.0.0, SVG Export Plug-In . SVG Version: 6.00 Build 0)  -->
<svg version="1.2" baseProfile="tiny" id="Layer_1" xmlns="http://www.w3.org/2000/svg" xmlns:xlink="http://www.w3.org/1999/xlink"
	 x="0px" y="0px" viewBox="0 0 25 25" xml:space="preserve">
<g>
	<path fill="#656565" stroke="#656565" stroke-width="0.25" d="M6.2,0.9H2.5c-0.9,0-1.7,0.7-1.7,1.7v3.7c0,0.9,0.7,1.7,1.7,1.7h3.7
		c0.9,0,1.7-0.7,1.7-1.7V2.5C7.9,1.6,7.1,0.9,6.2,0.9z M6.5,6.2c0,0.1-0.1,0.2-0.2,0.2H2.5c-0.1,0-0.2-0.1-0.2-0.2V2.5
		c0-0.1,0.1-0.2,0.2-0.2h3.7c0.1,0,0.2,0.1,0.2,0.2V6.2z"/>
	<path fill="#656565" stroke="#656565" stroke-width="0.25" d="M6.2,9.2H2.5c-0.9,0-1.7,0.7-1.7,1.7v3.6h0v0.1
		c0,0.9,0.7,1.7,1.7,1.7h3.7c0.9,0,1.7-0.7,1.7-1.7v-3.7C7.9,10,7.1,9.2,6.2,9.2z M6.5,14.6c0,0.1-0.1,0.2-0.2,0.2H2.5
		c-0.1,0-0.2-0.1-0.2-0.2v-3.7v0c0-0.1,0.1-0.2,0.2-0.2h3.7c0.1,0,0.2,0.1,0.2,0.2V14.6z"/>
	<path fill="#656565" stroke="#656565" stroke-width="0.25" d="M6.2,17.6H2.5c-0.9,0-1.7,0.7-1.7,1.7v3.6h0V23
		c0,0.9,0.7,1.7,1.7,1.7h3.7c0.9,0,1.7-0.7,1.7-1.7v-3.7C7.9,18.4,7.1,17.6,6.2,17.6z M6.5,23c0,0.1-0.1,0.2-0.2,0.2H2.5
		c-0.1,0-0.2-0.1-0.2-0.2v-3.7v0c0-0.1,0.1-0.2,0.2-0.2h3.7c0.1,0,0.2,0.1,0.2,0.2V23z"/>
	<path fill="#656565" stroke="#656565" stroke-width="0.25" d="M10.7,5.1h13.2c0.4,0,0.7-0.3,0.7-0.7c0-0.4-0.3-0.7-0.7-0.7H10.7
		C10.3,3.7,10,4,10,4.4C10,4.8,10.3,5.1,10.7,5.1z"/>
	<path fill="#656565" stroke="#656565" stroke-width="0.25" d="M23.9,12H10.7c-0.4,0-0.7,0.3-0.7,0.7c0,0.4,0.3,0.7,0.7,0.7h13.2
		c0.4,0,0.7-0.3,0.7-0.7C24.7,12.4,24.3,12,23.9,12z"/>
	<path fill="#656565" stroke="#656565" stroke-width="0.25" d="M23.9,20.4H10.7c-0.4,0-0.7,0.3-0.7,0.7c0,0.4,0.3,0.7,0.7,0.7h13.2
		c0.4,0,0.7-0.3,0.7-0.7C24.7,20.7,24.3,20.4,23.9,20.4z"/>
</g>
</svg>
